<svg width="100" height="100" viewBox="0 0 100 100" fill="none" xmlns="http://www.w3.org/2000/svg">
<rect width="100" height="100" rx="10" fill="#C2FCFF"/>
<path d="M60 60C65.5228 60 70 55.5228 70 50C70 44.4772 65.5228 40 60 40C54.4772 40 50 44.4772 50 50C50 55.5228 54.4772 60 60 60Z" fill="#19BCFE"/>
<path fill-rule="evenodd" clip-rule="evenodd" d="M40 80C42.6522 80 45.1957 78.9464 47.0711 77.0711C48.9464 75.1957 50 72.6522 50 70V60H40C37.3478 60 34.8043 61.0536 32.9289 62.9289C31.0536 64.8043 30 67.3478 30 70C30 72.6522 31.0536 75.1957 32.9289 77.0711C34.8043 78.9464 37.3478 80 40 80Z" fill="#09CF83"/>
<path fill-rule="evenodd" clip-rule="evenodd" d="M40 60H50V40H40C37.3478 40 34.8043 41.0536 32.9289 42.9289C31.0536 44.8043 30 47.3478 30 50C30 52.6522 31.0536 55.1957 32.9289 57.0711C34.8043 58.9464 37.3478 60 40 60Z" fill="#A259FF"/>
<path fill-rule="evenodd" clip-rule="evenodd" d="M40 40H50V20H40C37.3478 20 34.8043 21.0536 32.9289 22.9289C31.0536 24.8043 30 27.3478 30 30C30 32.6522 31.0536 35.1957 32.9289 37.0711C34.8043 38.9464 37.3478 40 40 40Z" fill="#F24E1E"/>
<path fill-rule="evenodd" clip-rule="evenodd" d="M60 40H50V20H60C62.6522 20 65.1957 21.0536 67.0711 22.9289C68.9464 24.8043 70 27.3478 70 30C70 32.6522 68.9464 35.1957 67.0711 37.0711C65.1957 38.9464 62.6522 40 60 40Z" fill="#FF7262"/>
</svg>
