<svg width="29" height="29" viewBox="0 0 29 29" fill="none" xmlns="http://www.w3.org/2000/svg">
<path d="M25.8281 11.8719C25.8281 11.8719 24.4687 13.1406 22.1578 14.6359C21.5234 10.9656 19.7562 6.43437 16.3125 0.90625C16.3125 0.90625 15.1797 6.84219 11.4187 12.4156C9.78749 9.87813 9.06249 7.88437 9.06249 7.88437C-2.71876 19.7109 7.06874 28.0938 13.2312 28.0938C21.1156 28.0938 28.0484 24.2875 25.8281 11.8719Z" fill="#FF9D33"/>
<path d="M21.1609 22.3844C21.8406 20.8891 22.3391 18.9407 22.4297 16.4938C22.4297 16.4938 21.4781 17.3094 19.8469 18.3516C19.3938 15.9047 18.1703 12.9141 15.7688 9.19849C15.7688 9.19849 14.9984 13.1407 12.3703 16.9016C11.2375 15.225 10.7391 13.8657 10.7391 13.8657C8.79064 16.9469 8.02032 19.3938 7.97501 21.3422C6.88751 20.9344 6.20782 20.6172 6.20782 20.6172C8.06564 26.1454 11.9172 27.3688 13.6391 27.3688C16.7203 27.3688 19.8469 26.4626 22.9281 22.0672C22.9281 22.0219 22.2484 22.2032 21.1609 22.3844Z" fill="#FFCE31"/>
<path d="M9.92343 19.8922C9.92343 19.8922 11.1922 21.6141 12.1437 21.2062C12.1437 21.2062 13.9562 18.3516 16.5844 16.7656C16.5844 16.7656 16.0406 21.1156 16.675 21.8859C17.4906 22.9281 19.7109 20.7531 19.7109 20.7531C19.7109 23.3359 16.9016 26.5531 14.3641 26.5531C11.9172 26.5531 8.3828 23.7438 9.92343 19.8922Z" fill="#FFDF85"/>
<path d="M22.5656 8.20147C23.5172 6.84209 24.1516 5.39209 24.1516 5.39209C25.7375 8.02022 24.7859 9.60615 24.1063 10.1046C23.1547 10.8296 21.4781 9.7874 22.5656 8.20147Z" fill="#FF9D33"/>
<path d="M5.25625 7.74839C4.30469 6.16245 4.21406 4.1687 4.21406 4.1687C1.94844 7.56714 2.80938 9.47026 3.57969 10.014C4.57656 10.7843 6.29844 9.6062 5.25625 7.74839Z" fill="#FF9D33"/>
<path d="M10.5125 4.21406C10.6484 3.12656 10.1953 2.03906 10.1953 2.03906C12.325 3.44375 12.325 4.62187 12.0531 5.12031C11.6453 5.70937 10.3766 5.4375 10.5125 4.21406Z" fill="#FF9D33"/>
</svg>
